{
  "extends": ["tslint-config-prettier"],
  "linterOptions": {
      "exclude": [
          "config/**/*.js",
          "node_modules/**/*.ts",
          "coverage/lcov-report/*.js"
      ]
  },
  "rules": {
      "align": [
          true,
          "parameters",
          "arguments",
          "statements"
      ],
      "ban": false,
      "class-name": true,
      "comment-format": [
          true,
          "check-space"
      ],
      "curly": true,
      "eofline": false,
      "forin": true,
      "indent": [true, "spaces"],
      "interface-name": [true, "never-prefix"],
      "jsdoc-format": true,
      "jsx-no-lambda": false,
      "jsx-no-multiline-js": false,
      "label-position": true,
      "max-line-length": [true, 200],
      "member-ordering": [true],
      "no-any": false,
      "no-arg": true,
      "no-bitwise": true,
      "no-console": [
          false,
          "log",
          "error",
          "debug",
          "info",
          "time",
          "timeEnd",
          "trace"
      ],
      "no-consecutive-blank-lines": false,
      "no-construct": true,
      "no-debugger": true,
      "no-empty": true,
      "no-eval": true,
      "no-shadowed-variable": true,
      "no-string-literal": true,
      "no-switch-case-fall-through": true,
      "no-trailing-whitespace": false,
      "no-unused-expression": true,
      "no-var-keyword": true,
      "one-line": [
          true,
          "check-open-brace",
          "check-whitespace"
      ],
      "quotemark": [true, "single", "jsx-double"],
      "radix": true,
      "semicolon": [true, "always"],
      "switch-default": true,

      "trailing-comma": [false],

      "triple-equals": [true, "allow-null-check"],
      "typedef": [
          true,
          "parameter",
          "property-declaration"
      ],
      "typedef-whitespace": [
          true,
          {
              "call-signature": "nospace",
              "index-signature": "nospace",
              "parameter": "nospace",
              "property-declaration": "nospace",
              "variable-declaration": "nospace"
          }
      ],
      "variable-name": [true, "ban-keywords", "check-format", "allow-leading-underscore", "allow-pascal-case"],
      "whitespace": [
          true,
          "check-branch",
          "check-decl",
          "check-operator",
          "check-separator",
          "check-type",
          "check-typecast"
      ]
  },
  "jsRules": {
      "max-len": [2, 250, 2, {
          "ignoreUrls": true,
          "ignoreComments": false
      }],
      "array-callback-return": false,
      "complexity": false,
      "consistent-return": false,
      "curly": false,
      "camelcase": false,
      "dot-location": false,
      "dot-notation": false,
      "max-classes-per-file": false,
      "no-case-declarations": false,
      "no-else-return": false,
      "no-eval": true,
      "no-extend-native": false,
      "no-invalid-this": true,
      "no-magic-numbers": [
          false,
          {
              "ignore": [
                  -1,
                  0,
                  1
              ]
          }
      ],
      "no-param-reassign": false,
      "no-return-await": true,
      "no-useless-return": false,
      "no-warning-comments": false,
      "radix": true,
      "require-unicode-regexp": false,
      "yoda": false
  }
}